colorainesog@gmail.com,colorainesog@gmail.com,Coloraines de l'Orfeó Gracienc,Barcelona,Barcelonès,
laiadlh@gmail.com,laiadlh@gmail.com,Gymúsic,Barcelona,Barcelonès,
martacordomi@gmail.com,martacordomi@gmail.com,El Virolet,Barcelona,Barcelonès,
coralvoramar@voramar.cat,coralvoramar@voramar.cat,Voramar,Barcelona,Barcelonès,
laianieto@gmail.com,laianieto@gmail.com,L'Esquitx,Barcelona,Barcelonès,
ammariliss@hotmail.com,ammariliss@hotmail.com,Els Matiners,L'Hospitalet de Llobregat,Barcelonès,
tonigc9@gmail.com,tonigc9@gmail.com,L'Espurna,Barcelona,Barcelonès,
mireiabt@gmail.com,mireiabt@gmail.com,Xamfà,Barcelona,Barcelonès,
monbelar@gmail.com,monbelar@gmail.com,Sant Medir,Barcelona,Barcelonès,
monbelar@gmail.com,monbelar@gmail.com,Joncar Petit,Barcelona,Barcelonès,
miriam.l.b.29@gmail.com,miriam.l.b.29@gmail.com,Xemeneia Amunt,Barcelona,Barcelonès,
mperezc@escolesgarbi.cat,mperezc@escolesgarbi.cat,Corals de l'Escola Garbí-Pere Vergés,Esplugues de Llobregat/Badalona,Barcelonès,
musicant@musicant.cat,musicant@musicant.cat,Musicant,Barcelona,Barcelonès,
monmonfort@gmail.com,monmonfort@gmail.com,L'Arc,Barcelona,Barcelonès,
elspetitsmartinencs@gmail.com,elspetitsmartinencs@gmail.com,Els Petits Martinencs,Barcelona,Barcelonès,
estherdonategil@gmail.com,estherdonategil@gmail.com,Clau de Do - Fort Pienc,Barcelona,Barcelonès,
joan.lopez@participacio-scias.com,joan.lopez@participacio-scias.com,Sakura Scias,Barcelona,Barcelonès,
coralinfantilcollserola@gmail.com,coralinfantilcollserola@gmail.com,Collerola,Barcelona,Barcelonès,


descamps47@yahoo.es,descamps47@yahoo.es,Brins,Camprodon,Gironès-Osona
berjut@hotmail.com,berjut@hotmail.com,Niudenotes,Torroella de Montgrí,Gironès-Osona
corcabirol@gmail.com,corcabirol@gmail.com,Cabirol,Vic,Gironès-Osona
nurietapuigdesens@hotmail.com,nurietapuigdesens@hotmail.com,Espurna de l'Orfeó Vigatà,Vic,Gironès-Osona
elsfollets@yahoo.es,elsfollets@yahoo.es,Els Follets,Ripoll,Gironès-Osona

artnou@gmail.com,artnou@gmail.com,Art-9,Granollers,Maresme, Vallès Oriental
cme.direccio@santceloni.cat,cme.direccio@santceloni.cat,EMM de Sant Celoni,Sant Celoni,Maresme, Vallès Oriental
annaginestacasas@gmail.com,annaginestacasas@gmail.com,L'escarlet,Calella,Maresme, Vallès Oriental
lidiarafanell@hotmail.com,lidiarafanell@hotmail.com,Xic Estel,Vilassar de Dalt,Maresme, Vallès Oriental
aulacontrapunt@yahoo.es,aulacontrapunt@yahoo.es,Contrapunt,Malgrat de Mar,Maresme, Vallès Oriental
oriola@svmontalt.cat,oriola@svmontalt.cat,L'Oriola,Sant Vicenç de Montalt,Maresme, Vallès Oriental
coralpicarol@gmail.com,coralpicarol@gmail.com,Picarol,Teià,Maresme, Vallès Oriental
gemmaruizpuig@gmail.com,gemmaruizpuig@gmail.com,Els Boixets / Tiamat,Arenys de Mar,Maresme, Vallès Oriental
gl_prats@yahoo.es,gl_prats@yahoo.es,Rodasons,Mataró,Maresme, Vallès Oriental
mcondeminasamig1@gmail.com,mcondeminasamig1@gmail.com,Tiana - Arpes,Tiana,Maresme, Vallès Oriental
ainamarte@hotmail.com,ainamarte@hotmail.com,El Pailebot,Arenys de Mar,Maresme, Vallès Oriental

silviajosep@msn.com,silviajosep@msn.com,Rierol,Sant Jaume dels Domenys,Penedès Anoia,
laiacuadras@gmail.com,laiacuadras@gmail.com,Xicoira,Piera,Penedès Anoia,
jcrespinesteve@gmail.com,jcrespinesteve@gmail.com,Llebeig,Calafell,Penedès Anoia,
neussendra@hotmail.com,neussendra@hotmail.com,El Serral de Lavern,Lavern-Subirats,Penedès Anoia,
moncunill.anna@gmail.com,moncunill.anna@gmail.com,Gatzara,Igualada,Penedès Anoia,
lluisaltarriba02@gmail.com,lluisaltarriba02@gmail.com,Estrop,Vilanova i la Geltrú,Penedès Anoia,
carlarodriguezrossell@gmail.com,carlarodriguezrossell@gmail.com,Els Verdums,Igualada,Penedès Anoia,
J.SOLEGALI@GMAIL.COM,J.SOLEGALI@GMAIL.COM,El Petit Estel,El Vendrell,Penedès Anoia,
espinguet2011@gmail.com,espinguet2011@gmail.com,L'Espinguet,Vilafranca del Penedès,Penedès Anoia,
roseresteban@gmail.com,roseresteban@gmail.com,Rossinyols i Rierol,Llorenç del Penedès i Sant Jaume dels Domenys,Penedès Anoia,
collpim@gmail.com,collpim@gmail.com,El Petit Vailet,La Múnia,Penedès Anoia,



emm@flix.altanet.org,emm@flix.altanet.org,Petits cantaires de l'Orfeó de Flix,Flix,Terres de Ponent,
dolorsmonsa@gmail.com,dolorsmonsa@gmail.com,Petits cantaires de l'Orfeó de Flix,Terres de Ponent, // dos emails?

ngene3@xtec.cat,ngene3@xtec.cat,Mestre Güell,Tàrrega,Terres de Ponent,
beacch89@gmail.com,beacch89@gmail.com,Alzina,Alcarràs,Terres de Ponent,
annadarie@gmail.com,annadarie@gmail.com,Coral infantil d'Oliana,Oliana,Terres de Ponent,
lopezl_1420@hotmail.com,lopezl_1420@hotmail.com,Ginestell,Alguaire,Terres de Ponent,
coralginestell@hotmail.com,coralginestell@hotmail.com,Ginestell,Terres de Ponent,
gasconanna@hotmail.com,gasconanna@hotmail.com,Brins,Ponts,Terres de Ponent,
gasconanna@hotmail.com,gasconanna@hotmail.com,Verdaguer,Ponts,Terres de Ponent,
rosapuigortiz@gmail.com,rosapuigortiz@gmail.com,Nova Cervera,Cervera,Terres de Ponent,
coraldavui@hotmail.com,coraldavui@hotmail.com,Bon cant,Agramunt,Terres de Ponent,
ecabos@gmail.com,ecabos@gmail.com,Bon cant,,Terres de Ponent,
info@coralshalom.cat,info@coralshalom.cat,Shalom,Lleida,Terres de Ponent,

coralsergi@gmail.com,coralsergi@gmail.com,IES Sentmenat,Sentmenat,Eix del Llobregat - Vallès Occidental,
evallbona@xij.gencat.cat,evallbona@xij.gencat.cat,Els pinetons,Ripollet,Eix del Llobregat - Vallès Occidental,
betkuga@gmail.com,betkuga@gmail.com,EMM Victòria dels Àngels,Sant Cugat del Vallès,Eix del Llobregat - Vallès Occidental,
jaumesala12@gmail.com,jaumesala12@gmail.com,Coral Sant Esteve,Castellar del Vallès,Eix del Llobregat - Vallès Occidental,
aluque12@xtec.cat,aluque12@xtec.cat,Coral Infantil L'Espiga,Badia del Vallès,Eix del Llobregat - Vallès Occidental,
mgclape@gmail.com,mgclape@gmail.com,Cor de Veus Blanques del Conservatori,Terrassa,Eix del Llobregat - Vallès Occidental,
gina.miserachs@gmail.com,gina.miserachs@gmail.com,Fusió,Sant Cugat del Vallès,Eix del Llobregat - Vallès Occidental,
info@amcastellet.cat,info@amcastellet.cat,Nou Horitzó,Sant Vicenç de Castellet,Eix del Llobregat - Vallès Occidental,
cris.albendiz@gmail.com,cris.albendiz@gmail.com,EMM d'Esplugues de Llobregat,Esplugues de Llobregat,Eix del Llobregat - Vallès Occidental,



ceciliaaymi@hotmail.com,ceciliaaymi@hotmail.com,Escola i Conservatori de Música de Tarragona,Tarragona,Tarragonès,
violetagustina@gmail.com,violetagustina@gmail.com,CP Vicente Gaos,València,Tarragonès,
solsolmib@gmail.com,solsolmib@gmail.com,Escola Coral L'Eliana,L'Eliana,Tarragonès,
marc.guerris@gmail.com,marc.guerris@gmail.com,Rossinyols de Tarragona,Tarragona,Tarragonès,
coralxaloc@live.com,coralxaloc@live.com,Xaloc,Torredembarra,Tarragonès,
cinta_olle@hotmail.com,cinta_olle@hotmail.com,Joventuts Unides,La Sénia,Tarragonès,
laia.valls10@gmail.com,laia.valls10@gmail.com,Cors Alegres,Valls,Tarragonès,
coralinfantil_vergedelcami@hotmail.com,coralinfantil_vergedelcami@hotmail.com,Verge del Camí,Cambrils,Tarragonès,
nuriaperezarche@gmail.com,nuriaperezarche@gmail.com,Al ritme,Sarral,Tarragonès,
e3011960@xtec.cat,e3011960@xtec.cat,EMMP (Escola de Música Municipal del Perelló),El Perelló,Tarragonès,
vpa3691@gmail.com,vpa3691@gmail.com,Schola Cantorum d'Algemesí,Algemesí,Tarragonès,
ovi@orfeovalencia.org,ovi@orfeovalencia.org,Barcavella,València,Tarragonès,
ensenyament@torredembarra.cat,ensenyament@torredembarra.cat,EMM Torredembarra,Torredembarra,Tarragonès,










