<?xml version="1.0" encoding="UTF-8"?>
<svg width="164px" height="49px" viewBox="0 0 164 49" version="1.1" xmlns="http://www.w3.org/2000/svg" xmlns:xlink="http://www.w3.org/1999/xlink">
    <!-- Generator: Sketch 51.2 (57519) - http://www.bohemiancoding.com/sketch -->
    <title>logo-scic</title>
    <desc>Created with Sketch.</desc>
    <defs>
        <polygon id="path-1" points="0.06 0.147 34.6971844 0.147 34.6971844 21.337 0.06 21.337"></polygon>
        <polygon id="path-3" points="0.629472484 0.746 67.803 0.746 67.803 34.94 0.629472484 34.94"></polygon>
    </defs>
    <g id="logo-scic" stroke="none" stroke-width="1" fill="none" fill-rule="evenodd">
        <polygon id="Fill-1" fill="#000000" points="81.317 36.873 163.985 36.873 163.985 25.275 81.317 25.275"></polygon>
        <path d="M86.227,33.531 C86.295,33.403 86.272,33.288 86.123,33.184 L85.858,33.001 C85.732,32.921 85.618,32.945 85.514,33.094 C85.386,33.265 85.166,33.736 84.524,33.736 C83.877,33.736 83.509,33.208 83.509,32.692 L83.509,30.876 C83.509,30.36 83.877,29.83 84.524,29.83 C85.166,29.83 85.409,30.338 85.514,30.498 C85.604,30.635 85.732,30.646 85.858,30.553 L86.133,30.36 C86.272,30.268 86.249,30.118 86.204,30.016 C86.112,29.809 85.663,29.014 84.524,29.014 C83.383,29.014 82.623,29.888 82.623,30.876 L82.623,32.692 C82.623,33.68 83.383,34.553 84.524,34.553 C85.663,34.553 86.1,33.781 86.227,33.531 Z M91.626,32.692 L91.626,30.876 C91.626,29.888 90.866,29.014 89.726,29.014 C88.587,29.014 87.827,29.888 87.827,30.876 L87.827,32.692 C87.827,33.68 88.587,34.553 89.726,34.553 C90.866,34.553 91.626,33.68 91.626,32.692 Z M90.739,32.692 C90.739,33.208 90.371,33.736 89.726,33.736 C89.081,33.736 88.712,33.208 88.712,32.692 L88.712,30.876 C88.712,30.36 89.081,29.83 89.726,29.83 C90.371,29.83 90.739,30.36 90.739,30.876 L90.739,32.692 Z M97.059,29.888 C97.139,29.75 97.093,29.612 96.979,29.532 C96.69,29.326 96.069,29.014 95.366,29.014 C94.228,29.014 93.467,29.888 93.467,30.876 L93.467,34.184 C93.467,34.345 93.559,34.437 93.721,34.437 L94.1,34.437 C94.26,34.437 94.352,34.345 94.352,34.184 L94.352,30.876 C94.352,30.36 94.721,29.83 95.366,29.83 C95.85,29.83 96.264,30.037 96.563,30.221 C96.678,30.29 96.84,30.268 96.92,30.131 L97.059,29.888 Z M101.571,34.184 L101.571,30.876 C101.571,29.888 100.811,29.014 99.671,29.014 C99.165,29.014 98.739,29.144 98.372,29.348 C98.268,29.407 98.165,29.543 98.245,29.694 L98.393,29.958 C98.474,30.096 98.567,30.154 98.716,30.072 C98.947,29.947 99.268,29.83 99.671,29.83 C100.317,29.83 100.684,30.36 100.684,30.876 C100.684,30.992 100.615,31.061 100.523,31.015 C100.282,30.899 99.971,30.831 99.671,30.831 C98.532,30.831 97.772,31.703 97.772,32.692 C97.772,33.68 98.532,34.553 99.671,34.553 C100.131,34.553 100.465,34.414 100.673,34.289 C100.719,34.254 100.789,34.254 100.834,34.332 C100.868,34.393 100.926,34.437 101.018,34.437 L101.317,34.437 C101.479,34.437 101.571,34.345 101.571,34.184 Z M100.684,32.692 C100.684,33.208 100.317,33.736 99.671,33.736 C99.027,33.736 98.658,33.208 98.658,32.692 C98.658,32.175 99.027,31.648 99.671,31.648 C100.317,31.648 100.684,32.175 100.684,32.692 Z M106.67,33.92 C106.763,33.817 106.75,33.655 106.625,33.565 L106.393,33.403 C106.245,33.301 106.131,33.312 105.968,33.449 C105.807,33.588 105.612,33.736 105.266,33.736 C104.622,33.736 104.253,33.208 104.253,32.692 L104.253,27.108 C104.253,26.95 104.161,26.855 104,26.855 L103.62,26.855 C103.459,26.855 103.368,26.95 103.368,27.108 L103.368,32.692 C103.368,33.68 104.126,34.553 105.266,34.553 C105.911,34.553 106.383,34.264 106.67,33.92 Z M111.287,32.829 C111.287,31.75 110.4,31.301 109.387,31.244 C109.387,31.244 108.465,31.211 108.465,30.532 C108.465,30.29 108.674,29.818 109.387,29.818 C109.665,29.818 109.928,29.924 110.159,30.142 C110.262,30.233 110.4,30.256 110.516,30.175 L110.792,29.982 C110.918,29.888 110.94,29.761 110.827,29.636 C110.528,29.301 110.043,29.014 109.387,29.014 C108.202,29.014 107.614,29.797 107.614,30.532 C107.614,31.405 108.26,31.989 109.387,32.047 C109.387,32.047 110.4,32.047 110.4,32.829 C110.4,33.265 110.113,33.736 109.387,33.736 C108.846,33.736 108.455,33.368 108.213,33.035 C108.133,32.921 108.005,32.886 107.879,32.967 L107.614,33.152 C107.477,33.253 107.464,33.382 107.545,33.507 C107.822,33.944 108.397,34.553 109.387,34.553 C110.584,34.553 111.287,33.806 111.287,32.829 Z M119.772,27.361 L119.772,27.108 C119.772,26.95 119.678,26.855 119.518,26.855 L119.137,26.855 C118.976,26.855 118.885,26.95 118.885,27.108 L118.885,27.361 C118.885,27.524 118.976,27.615 119.137,27.615 L119.518,27.615 C119.678,27.615 119.772,27.524 119.772,27.361 Z M121.877,33.909 L121.67,33.646 C121.567,33.52 121.452,33.531 121.313,33.599 C121.22,33.646 121.026,33.736 120.784,33.736 C120.139,33.736 119.772,33.208 119.772,32.692 L119.772,29.382 C119.772,29.223 119.678,29.131 119.518,29.131 L119.137,29.131 C118.976,29.131 118.885,29.223 118.885,29.382 L118.885,32.692 C118.885,33.68 119.645,34.553 120.784,34.553 C121.175,34.553 121.543,34.427 121.809,34.264 C121.924,34.196 121.981,34.047 121.877,33.909 Z M127.01,34.184 L127.01,30.876 C127.01,29.888 126.251,29.014 125.111,29.014 C124.651,29.014 124.317,29.152 124.111,29.28 C124.065,29.313 123.997,29.313 123.95,29.232 C123.915,29.177 123.857,29.131 123.766,29.131 L123.465,29.131 C123.303,29.131 123.213,29.223 123.213,29.382 L123.213,34.184 C123.213,34.345 123.303,34.437 123.465,34.437 L123.845,34.437 C124.007,34.437 124.099,34.345 124.099,34.184 L124.099,30.876 C124.099,30.36 124.467,29.83 125.111,29.83 C125.756,29.83 126.125,30.36 126.125,30.876 L126.125,34.184 C126.125,34.345 126.217,34.437 126.378,34.437 L126.758,34.437 C126.918,34.437 127.01,34.345 127.01,34.184 Z M132.825,27.615 C132.905,27.476 132.86,27.337 132.744,27.259 C132.458,27.052 131.834,26.741 131.133,26.741 C129.994,26.741 129.233,27.615 129.233,28.603 L129.233,28.879 C129.233,29.038 129.141,29.131 128.981,29.131 L128.727,29.131 C128.565,29.131 128.473,29.223 128.473,29.382 L128.473,29.636 C128.473,29.797 128.565,29.888 128.727,29.888 L128.981,29.888 C129.141,29.888 129.233,29.982 129.233,30.142 L129.233,34.184 C129.233,34.345 129.326,34.437 129.485,34.437 L129.867,34.437 C130.027,34.437 130.12,34.345 130.12,34.184 L130.12,30.142 C130.12,29.982 130.211,29.888 130.373,29.888 L132.02,29.888 C132.18,29.888 132.272,29.797 132.272,29.636 L132.272,29.382 C132.272,29.223 132.18,29.131 132.02,29.131 L130.373,29.131 C130.211,29.131 130.12,29.038 130.12,28.879 L130.12,28.603 C130.12,28.084 130.487,27.559 131.133,27.559 C131.616,27.559 132.03,27.764 132.33,27.947 C132.445,28.018 132.606,27.995 132.686,27.855 L132.825,27.615 Z M137.188,34.184 L137.188,30.876 C137.188,29.888 136.428,29.014 135.288,29.014 C134.782,29.014 134.356,29.144 133.987,29.348 C133.884,29.407 133.78,29.543 133.862,29.694 L134.008,29.958 C134.091,30.096 134.183,30.154 134.333,30.072 C134.564,29.947 134.885,29.83 135.288,29.83 C135.932,29.83 136.301,30.36 136.301,30.876 C136.301,30.992 136.231,31.061 136.139,31.015 C135.899,30.899 135.587,30.831 135.288,30.831 C134.147,30.831 133.389,31.703 133.389,32.692 C133.389,33.68 134.147,34.553 135.288,34.553 C135.748,34.553 136.083,34.414 136.29,34.289 C136.336,34.254 136.405,34.254 136.45,34.332 C136.486,34.393 136.542,34.437 136.635,34.437 L136.934,34.437 C137.094,34.437 137.188,34.345 137.188,34.184 Z M136.301,32.692 C136.301,33.208 135.932,33.736 135.288,33.736 C134.643,33.736 134.276,33.208 134.276,32.692 C134.276,32.175 134.643,31.648 135.288,31.648 C135.932,31.648 136.301,32.175 136.301,32.692 Z M142.506,34.184 L142.506,30.876 C142.506,29.888 141.747,29.014 140.606,29.014 C140.145,29.014 139.813,29.152 139.604,29.28 C139.559,29.313 139.491,29.313 139.444,29.232 C139.409,29.177 139.352,29.131 139.26,29.131 L138.961,29.131 C138.798,29.131 138.708,29.223 138.708,29.382 L138.708,34.184 C138.708,34.345 138.798,34.437 138.961,34.437 L139.34,34.437 C139.5,34.437 139.592,34.345 139.592,34.184 L139.592,30.876 C139.592,30.36 139.962,29.83 140.606,29.83 C141.251,29.83 141.62,30.36 141.62,30.876 L141.62,34.184 C141.62,34.345 141.712,34.437 141.873,34.437 L142.252,34.437 C142.413,34.437 142.506,34.345 142.506,34.184 Z M147.698,33.92 C147.79,33.817 147.778,33.655 147.651,33.565 L147.42,33.403 C147.27,33.301 147.156,33.312 146.995,33.449 C146.834,33.588 146.639,33.736 146.293,33.736 C145.648,33.736 145.281,33.208 145.281,32.692 L145.281,30.142 C145.281,29.982 145.372,29.888 145.532,29.888 L146.799,29.888 C146.961,29.888 147.053,29.797 147.053,29.636 L147.053,29.382 C147.053,29.223 146.961,29.131 146.799,29.131 L145.532,29.131 C145.372,29.131 145.281,29.038 145.281,28.879 L145.281,27.865 C145.281,27.706 145.188,27.615 145.026,27.615 L144.647,27.615 C144.487,27.615 144.393,27.706 144.393,27.865 L144.393,28.879 C144.393,29.038 144.301,29.131 144.139,29.131 L143.887,29.131 C143.725,29.131 143.633,29.223 143.633,29.382 L143.633,29.636 C143.633,29.797 143.725,29.888 143.887,29.888 L144.139,29.888 C144.301,29.888 144.393,29.982 144.393,30.142 L144.393,32.692 C144.393,33.68 145.153,34.553 146.293,34.553 C146.938,34.553 147.409,34.264 147.698,33.92 Z M150.299,27.361 L150.299,27.108 C150.299,26.95 150.206,26.855 150.045,26.855 L149.667,26.855 C149.504,26.855 149.412,26.95 149.412,27.108 L149.412,27.361 C149.412,27.524 149.504,27.615 149.667,27.615 L150.045,27.615 C150.206,27.615 150.299,27.524 150.299,27.361 Z M152.405,33.909 L152.198,33.646 C152.094,33.52 151.981,33.531 151.842,33.599 C151.75,33.646 151.554,33.736 151.311,33.736 C150.667,33.736 150.299,33.208 150.299,32.692 L150.299,29.382 C150.299,29.223 150.206,29.131 150.045,29.131 L149.667,29.131 C149.504,29.131 149.412,29.223 149.412,29.382 L149.412,32.692 C149.412,33.68 150.172,34.553 151.311,34.553 C151.704,34.553 152.072,34.427 152.336,34.264 C152.452,34.196 152.509,34.047 152.405,33.909 Z M157.321,33.92 C157.413,33.817 157.401,33.655 157.274,33.565 L157.045,33.403 C156.894,33.301 156.781,33.312 156.619,33.449 C156.458,33.588 156.262,33.736 155.916,33.736 C155.272,33.736 154.904,33.208 154.904,32.692 L154.904,27.108 C154.904,26.95 154.811,26.855 154.65,26.855 L154.27,26.855 C154.109,26.855 154.018,26.95 154.018,27.108 L154.018,32.692 C154.018,33.68 154.776,34.553 155.916,34.553 C156.561,34.553 157.033,34.264 157.321,33.92 Z M162.397,32.829 C162.397,31.75 161.512,31.301 160.499,31.244 C160.499,31.244 159.577,31.211 159.577,30.532 C159.577,30.29 159.785,29.818 160.499,29.818 C160.775,29.818 161.04,29.924 161.269,30.142 C161.374,30.233 161.512,30.256 161.625,30.175 L161.903,29.982 C162.03,29.888 162.051,29.761 161.938,29.636 C161.638,29.301 161.155,29.014 160.499,29.014 C159.313,29.014 158.725,29.797 158.725,30.532 C158.725,31.405 159.371,31.989 160.499,32.047 C160.499,32.047 161.512,32.047 161.512,32.829 C161.512,33.265 161.223,33.736 160.499,33.736 C159.958,33.736 159.565,33.368 159.324,33.035 C159.243,32.921 159.116,32.886 158.991,32.967 L158.725,33.152 C158.588,33.253 158.576,33.382 158.656,33.507 C158.932,33.944 159.507,34.553 160.499,34.553 C161.695,34.553 162.397,33.806 162.397,32.829 Z" id="Fill-2" fill="#FFFFFE"></path>
        <path d="M75.26,33.424 C75.526,32.939 75.436,32.5 74.864,32.103 L73.849,31.401 C73.366,31.092 72.924,31.181 72.53,31.754 C72.044,32.411 71.206,34.213 68.74,34.213 C66.272,34.213 64.863,32.192 64.863,30.214 L64.863,23.269 C64.863,21.291 66.272,19.268 68.74,19.268 C71.206,19.268 72.131,21.201 72.53,21.817 C72.88,22.345 73.366,22.387 73.849,22.038 L74.909,21.291 C75.436,20.939 75.348,20.367 75.171,19.97 C74.821,19.179 73.1,16.147 68.74,16.147 C64.377,16.147 61.471,19.486 61.471,23.269 L61.471,30.214 C61.471,33.993 64.377,37.337 68.74,37.337 C73.1,37.337 74.775,34.391 75.26,33.424" id="Fill-3" fill="#F7C338"></path>
        <path d="M55.215,35.929 L55.215,34.963 C55.215,34.347 54.862,33.995 54.247,33.995 L50.59,33.995 C49.973,33.995 49.621,33.642 49.621,33.027 L49.621,20.453 C49.621,19.841 49.973,19.486 50.59,19.486 L52.792,19.486 C53.41,19.486 53.76,19.138 53.76,18.52 L53.76,17.555 C53.76,16.938 53.41,16.588 52.792,16.588 L43.102,16.588 C42.483,16.588 42.133,16.938 42.133,17.555 L42.133,18.52 C42.133,19.138 42.483,19.486 43.102,19.486 L45.303,19.486 C45.919,19.486 46.274,19.841 46.274,20.453 L46.274,33.027 C46.274,33.642 45.919,33.995 45.303,33.995 L41.647,33.995 C41.032,33.995 40.677,34.347 40.677,34.963 L40.677,35.929 C40.677,36.545 41.032,36.897 41.647,36.897 L54.247,36.897 C54.862,36.897 55.215,36.545 55.215,35.929" id="Fill-4" fill="#69B546"></path>
        <g id="Group-8" transform="translate(0.000000, 16.000000)">
            <mask id="mask-2" fill="white">
                <use xlink:href="#path-1"></use>
            </mask>
            <g id="Clip-6"></g>
            <path d="M34.555,17.424 C34.819,16.939 34.731,16.5 34.159,16.103 L33.145,15.401 C32.661,15.092 32.219,15.181 31.823,15.754 C31.338,16.411 30.501,18.213 28.034,18.213 C25.567,18.213 24.159,16.192 24.159,14.214 L24.159,7.269 C24.159,5.291 25.567,3.268 28.034,3.268 C30.501,3.268 31.426,5.201 31.823,5.817 C32.175,6.345 32.661,6.387 33.145,6.038 L34.202,5.291 C34.731,4.939 34.641,4.367 34.466,3.97 C34.114,3.179 32.396,0.147 28.034,0.147 C23.674,0.147 20.766,3.486 20.766,7.269 L20.766,14.214 C20.766,17.993 23.674,21.337 28.034,21.337 C32.396,21.337 34.071,18.391 34.555,17.424" id="Fill-5" fill="#CE1C76" mask="url(#mask-2)"></path>
            <path d="M14.51,14.742 C14.51,10.608 11.118,8.896 7.241,8.675 C7.241,8.675 3.716,8.544 3.716,5.95 C3.716,5.026 4.508,3.226 7.241,3.226 C8.298,3.226 9.312,3.621 10.192,4.453 C10.588,4.807 11.118,4.895 11.558,4.588 L12.616,3.841 C13.1,3.486 13.189,3.005 12.748,2.52 C11.602,1.246 9.752,0.147 7.241,0.147 C2.704,0.147 0.456,3.138 0.456,5.95 C0.456,9.291 2.924,11.532 7.241,11.754 C7.241,11.754 11.118,11.754 11.118,14.742 C11.118,16.411 10.017,18.213 7.241,18.213 C5.17,18.213 3.672,16.807 2.748,15.531 C2.44,15.094 1.956,14.962 1.471,15.269 L0.456,15.974 C-0.072,16.367 -0.116,16.853 0.192,17.335 C1.25,19.006 3.453,21.337 7.241,21.337 C11.823,21.337 14.51,18.479 14.51,14.742" id="Fill-7" fill="#338CC0" mask="url(#mask-2)"></path>
        </g>
        <path d="M48.084,10.971 C50.575,10.971 52.594,8.956 52.594,6.471 C52.594,3.985 50.575,1.97 48.084,1.97 C45.593,1.97 43.574,3.985 43.574,6.471 C43.574,8.956 45.593,10.971 48.084,10.971" id="Fill-9" fill="#000000"></path>
        <path d="M27.625,10.971 C29.561,10.971 31.131,9.405 31.131,7.473 C31.131,5.54 29.561,3.973 27.625,3.973 C25.689,3.973 24.118,5.54 24.118,7.473 C24.118,9.405 25.689,10.971 27.625,10.971" id="Fill-10" fill="#000000"></path>
        <path d="M7.165,10.971 C8.51,10.971 9.602,9.883 9.602,8.542 C9.602,7.199 8.51,6.11 7.165,6.11 C5.821,6.11 4.73,7.199 4.73,8.542 C4.73,9.883 5.821,10.971 7.165,10.971" id="Fill-11" fill="#000000"></path>
        <path d="M68.543,10.971 C71.532,10.971 73.956,8.555 73.956,5.572 C73.956,2.59 71.532,0.172 68.543,0.172 C65.554,0.172 63.131,2.59 63.131,5.572 C63.131,8.555 65.554,10.971 68.543,10.971" id="Fill-12" fill="#000000"></path>
        <g id="Group-16" transform="translate(82.000000, 14.000000)">
            <mask id="mask-4" fill="white">
                <use xlink:href="#path-3"></use>
            </mask>
            <g id="Clip-14"></g>
            <path d="M4.42,6.72 C4.42,5.642 3.534,5.192 2.522,5.136 C2.522,5.136 1.6,5.102 1.6,4.422 C1.6,4.183 1.808,3.711 2.522,3.711 C2.797,3.711 3.062,3.814 3.291,4.033 C3.395,4.124 3.534,4.147 3.649,4.068 L3.926,3.872 C4.052,3.779 4.076,3.653 3.96,3.527 C3.661,3.195 3.178,2.906 2.522,2.906 C1.336,2.906 0.748,3.688 0.748,4.422 C0.748,5.296 1.393,5.883 2.522,5.939 C2.522,5.939 3.534,5.939 3.534,6.72 C3.534,7.158 3.247,7.629 2.522,7.629 C1.979,7.629 1.588,7.259 1.348,6.927 C1.266,6.813 1.139,6.778 1.014,6.857 L0.748,7.041 C0.611,7.146 0.599,7.272 0.68,7.399 C0.956,7.835 1.532,8.443 2.522,8.443 C3.719,8.443 4.42,7.696 4.42,6.72 Z M9.739,5.549 L9.739,4.768 C9.739,3.779 8.978,2.906 7.839,2.906 C6.7,2.906 5.94,3.779 5.94,4.768 L5.94,6.584 C5.94,7.57 6.7,8.443 7.839,8.443 C8.807,8.443 9.371,7.893 9.647,7.445 C9.705,7.353 9.728,7.192 9.588,7.089 L9.336,6.906 C9.22,6.822 9.072,6.835 8.991,6.951 C8.795,7.215 8.438,7.629 7.839,7.629 C7.195,7.629 6.827,7.1 6.827,6.584 L6.827,6.306 C6.827,6.147 6.919,6.053 7.08,6.053 L9.233,6.053 C9.554,6.053 9.739,5.87 9.739,5.549 Z M8.852,5.044 C8.852,5.205 8.761,5.296 8.598,5.296 L7.08,5.296 C6.919,5.296 6.827,5.205 6.827,5.044 L6.827,4.768 C6.827,4.251 7.195,3.725 7.839,3.725 C8.485,3.725 8.852,4.251 8.852,4.768 L8.852,5.044 Z M14.977,7.421 C15.046,7.295 15.022,7.18 14.873,7.077 L14.608,6.893 C14.481,6.813 14.366,6.835 14.262,6.986 C14.136,7.158 13.919,7.629 13.274,7.629 C12.627,7.629 12.26,7.1 12.26,6.584 L12.26,4.768 C12.26,4.251 12.627,3.725 13.274,3.725 C13.919,3.725 14.161,4.226 14.262,4.39 C14.356,4.528 14.481,4.537 14.608,4.445 L14.884,4.251 C15.022,4.159 15.001,4.012 14.954,3.906 C14.862,3.699 14.413,2.906 13.274,2.906 C12.133,2.906 11.373,3.779 11.373,4.768 L11.373,6.584 C11.373,7.57 12.133,8.443 13.274,8.443 C14.413,8.443 14.848,7.674 14.977,7.421 Z M20.491,3.779 C20.573,3.643 20.526,3.505 20.411,3.424 C20.123,3.217 19.5,2.906 18.799,2.906 C17.659,2.906 16.9,3.779 16.9,4.768 L16.9,8.076 C16.9,8.237 16.991,8.327 17.153,8.327 L17.532,8.327 C17.694,8.327 17.786,8.237 17.786,8.076 L17.786,4.768 C17.786,4.251 18.155,3.725 18.799,3.725 C19.282,3.725 19.696,3.928 19.997,4.111 C20.112,4.183 20.272,4.159 20.352,4.021 L20.491,3.779 Z M25.463,5.549 L25.463,4.768 C25.463,3.779 24.704,2.906 23.565,2.906 C22.424,2.906 21.665,3.779 21.665,4.768 L21.665,6.584 C21.665,7.57 22.424,8.443 23.565,8.443 C24.53,8.443 25.095,7.893 25.372,7.445 C25.428,7.353 25.452,7.192 25.315,7.089 L25.06,6.906 C24.946,6.822 24.795,6.835 24.715,6.951 C24.52,7.215 24.163,7.629 23.565,7.629 C22.92,7.629 22.551,7.1 22.551,6.584 L22.551,6.306 C22.551,6.147 22.643,6.053 22.803,6.053 L24.958,6.053 C25.279,6.053 25.463,5.87 25.463,5.549 Z M24.579,5.044 C24.579,5.205 24.485,5.296 24.325,5.296 L22.803,5.296 C22.643,5.296 22.551,5.205 22.551,5.044 L22.551,4.768 C22.551,4.251 22.92,3.725 23.565,3.725 C24.208,3.725 24.579,4.251 24.579,4.768 L24.579,5.044 Z M30.425,7.812 C30.517,7.708 30.506,7.548 30.378,7.456 L30.149,7.295 C29.999,7.192 29.883,7.201 29.723,7.341 C29.561,7.479 29.366,7.629 29.02,7.629 C28.376,7.629 28.008,7.1 28.008,6.584 L28.008,4.033 C28.008,3.872 28.1,3.779 28.26,3.779 L29.528,3.779 C29.688,3.779 29.782,3.688 29.782,3.527 L29.782,3.274 C29.782,3.115 29.688,3.021 29.528,3.021 L28.26,3.021 C28.1,3.021 28.008,2.932 28.008,2.768 L28.008,1.758 C28.008,1.599 27.914,1.506 27.754,1.506 L27.374,1.506 C27.213,1.506 27.121,1.599 27.121,1.758 L27.121,2.768 C27.121,2.932 27.03,3.021 26.868,3.021 L26.616,3.021 C26.454,3.021 26.361,3.115 26.361,3.274 L26.361,3.527 C26.361,3.688 26.454,3.779 26.616,3.779 L26.868,3.779 C27.03,3.779 27.121,3.872 27.121,4.033 L27.121,6.584 C27.121,7.57 27.881,8.443 29.02,8.443 C29.666,8.443 30.137,8.156 30.425,7.812 Z M35.41,8.076 L35.41,4.768 C35.41,3.779 34.651,2.906 33.51,2.906 C33.002,2.906 32.579,3.033 32.209,3.239 C32.106,3.298 32,3.436 32.083,3.584 L32.233,3.848 C32.315,3.986 32.406,4.043 32.554,3.963 C32.785,3.837 33.108,3.725 33.51,3.725 C34.154,3.725 34.523,4.251 34.523,4.768 C34.523,4.881 34.456,4.951 34.362,4.905 C34.12,4.791 33.809,4.721 33.51,4.721 C32.37,4.721 31.61,5.594 31.61,6.584 C31.61,7.57 32.37,8.443 33.51,8.443 C33.971,8.443 34.305,8.305 34.512,8.181 C34.557,8.145 34.626,8.145 34.673,8.226 C34.707,8.283 34.764,8.327 34.856,8.327 L35.157,8.327 C35.317,8.327 35.41,8.237 35.41,8.076 Z M34.523,6.584 C34.523,7.1 34.154,7.629 33.51,7.629 C32.866,7.629 32.497,7.1 32.497,6.584 C32.497,6.066 32.866,5.538 33.51,5.538 C34.154,5.538 34.523,6.066 34.523,6.584 Z M40.842,3.779 C40.924,3.643 40.877,3.505 40.762,3.424 C40.475,3.217 39.854,2.906 39.151,2.906 C38.011,2.906 37.251,3.779 37.251,4.768 L37.251,8.076 C37.251,8.237 37.343,8.327 37.504,8.327 L37.883,8.327 C38.047,8.327 38.137,8.237 38.137,8.076 L38.137,4.768 C38.137,4.251 38.506,3.725 39.151,3.725 C39.635,3.725 40.049,3.928 40.347,4.111 C40.462,4.183 40.624,4.159 40.706,4.021 L40.842,3.779 Z M42.972,1.254 L42.972,1.001 C42.972,0.839 42.88,0.746 42.719,0.746 L42.34,0.746 C42.178,0.746 42.086,0.839 42.086,1.001 L42.086,1.254 C42.086,1.414 42.178,1.506 42.34,1.506 L42.719,1.506 C42.88,1.506 42.972,1.414 42.972,1.254 Z M45.079,7.801 L44.872,7.535 C44.768,7.41 44.653,7.421 44.515,7.49 C44.422,7.535 44.227,7.629 43.985,7.629 C43.34,7.629 42.972,7.1 42.972,6.584 L42.972,3.274 C42.972,3.115 42.88,3.021 42.719,3.021 L42.34,3.021 C42.178,3.021 42.086,3.115 42.086,3.274 L42.086,6.584 C42.086,7.57 42.846,8.443 43.985,8.443 C44.377,8.443 44.746,8.316 45.01,8.156 C45.125,8.088 45.182,7.938 45.079,7.801 Z M49.522,8.076 L49.522,4.768 C49.522,3.779 48.763,2.906 47.624,2.906 C47.116,2.906 46.692,3.033 46.323,3.239 C46.219,3.298 46.116,3.436 46.195,3.584 L46.346,3.848 C46.424,3.986 46.518,4.043 46.667,3.963 C46.899,3.837 47.22,3.725 47.624,3.725 C48.267,3.725 48.635,4.251 48.635,4.768 C48.635,4.881 48.567,4.951 48.475,4.905 C48.233,4.791 47.922,4.721 47.624,4.721 C46.483,4.721 45.723,5.594 45.723,6.584 C45.723,7.57 46.483,8.443 47.624,8.443 C48.083,8.443 48.417,8.305 48.625,8.181 C48.67,8.145 48.741,8.145 48.786,8.226 C48.821,8.283 48.878,8.327 48.969,8.327 L49.269,8.327 C49.43,8.327 49.522,8.237 49.522,8.076 Z M48.635,6.584 C48.635,7.1 48.267,7.629 47.624,7.629 C46.977,7.629 46.61,7.1 46.61,6.584 C46.61,6.066 46.977,5.538 47.624,5.538 C48.267,5.538 48.635,6.066 48.635,6.584 Z M54.944,7.812 C55.037,7.708 55.026,7.548 54.899,7.456 L54.667,7.295 C54.518,7.192 54.404,7.201 54.243,7.341 C54.081,7.479 53.885,7.629 53.542,7.629 C52.895,7.629 52.526,7.1 52.526,6.584 L52.526,4.033 C52.526,3.872 52.62,3.779 52.78,3.779 L54.046,3.779 C54.208,3.779 54.299,3.688 54.299,3.527 L54.299,3.274 C54.299,3.115 54.208,3.021 54.046,3.021 L52.78,3.021 C52.62,3.021 52.526,2.932 52.526,2.768 L52.526,1.758 C52.526,1.599 52.435,1.506 52.274,1.506 L51.893,1.506 C51.733,1.506 51.641,1.599 51.641,1.758 L51.641,2.768 C51.641,2.932 51.548,3.021 51.387,3.021 L51.135,3.021 C50.973,3.021 50.88,3.115 50.88,3.274 L50.88,3.527 C50.88,3.688 50.973,3.779 51.135,3.779 L51.387,3.779 C51.548,3.779 51.641,3.872 51.641,4.033 L51.641,6.584 C51.641,7.57 52.4,8.443 53.542,8.443 C54.184,8.443 54.657,8.156 54.944,7.812 Z M62.485,8.076 L62.485,1.001 C62.485,0.839 62.392,0.746 62.231,0.746 L61.852,0.746 C61.69,0.746 61.598,0.839 61.598,1.001 L61.598,2.986 C61.598,3.078 61.518,3.136 61.415,3.089 C61.137,2.976 60.862,2.906 60.584,2.906 C59.446,2.906 58.686,3.779 58.686,4.768 L58.686,6.584 C58.686,7.57 59.446,8.443 60.584,8.443 C61.045,8.443 61.379,8.305 61.586,8.181 C61.633,8.145 61.702,8.145 61.749,8.226 C61.783,8.283 61.838,8.327 61.932,8.327 L62.231,8.327 C62.392,8.327 62.485,8.237 62.485,8.076 Z M61.598,6.584 C61.598,7.1 61.229,7.629 60.584,7.629 C59.94,7.629 59.573,7.1 59.573,6.584 L59.573,4.768 C59.573,4.251 59.94,3.725 60.584,3.725 C61.229,3.725 61.598,4.251 61.598,4.768 L61.598,6.584 Z M67.803,5.549 L67.803,4.768 C67.803,3.779 67.043,2.906 65.903,2.906 C64.763,2.906 64.004,3.779 64.004,4.768 L64.004,6.584 C64.004,7.57 64.763,8.443 65.903,8.443 C66.87,8.443 67.434,7.893 67.71,7.445 C67.77,7.353 67.791,7.192 67.654,7.089 L67.4,6.906 C67.286,6.822 67.135,6.835 67.054,6.951 C66.858,7.215 66.501,7.629 65.903,7.629 C65.258,7.629 64.89,7.1 64.89,6.584 L64.89,6.306 C64.89,6.147 64.981,6.053 65.145,6.053 L67.295,6.053 C67.619,6.053 67.803,5.87 67.803,5.549 Z M66.917,5.044 C66.917,5.205 66.824,5.296 66.663,5.296 L65.145,5.296 C64.981,5.296 64.89,5.205 64.89,5.044 L64.89,4.768 C64.89,4.251 65.258,3.725 65.903,3.725 C66.549,3.725 66.917,4.251 66.917,4.768 L66.917,5.044 Z" id="Fill-13" fill="#000000" mask="url(#mask-4)"></path>
            <path d="M4.442,32.356 L4.442,25.28 C4.442,25.122 4.349,25.029 4.188,25.029 L3.809,25.029 C3.647,25.029 3.555,25.122 3.555,25.28 L3.555,27.269 C3.555,27.359 3.475,27.417 3.372,27.372 C3.094,27.256 2.819,27.189 2.543,27.189 C1.403,27.189 0.643,28.061 0.643,29.049 L0.643,30.864 C0.643,31.853 1.403,32.725 2.543,32.725 C3.002,32.725 3.336,32.587 3.545,32.461 C3.59,32.426 3.661,32.426 3.706,32.505 C3.739,32.564 3.797,32.61 3.889,32.61 L4.188,32.61 C4.349,32.61 4.442,32.52 4.442,32.356 Z M3.555,30.864 C3.555,31.38 3.186,31.908 2.543,31.908 C1.899,31.908 1.53,31.38 1.53,30.864 L1.53,29.049 C1.53,28.532 1.899,28.006 2.543,28.006 C3.186,28.006 3.555,28.532 3.555,29.049 L3.555,30.864 Z M9.76,29.829 L9.76,29.049 C9.76,28.061 9.001,27.189 7.861,27.189 C6.721,27.189 5.961,28.061 5.961,29.049 L5.961,30.864 C5.961,31.853 6.721,32.725 7.861,32.725 C8.829,32.725 9.392,32.172 9.669,31.726 C9.726,31.635 9.747,31.473 9.612,31.369 L9.358,31.186 C9.243,31.106 9.092,31.118 9.01,31.232 C8.817,31.494 8.46,31.908 7.861,31.908 C7.215,31.908 6.848,31.38 6.848,30.864 L6.848,30.59 C6.848,30.428 6.94,30.336 7.101,30.336 L9.254,30.336 C9.577,30.336 9.76,30.152 9.76,29.829 Z M8.873,29.324 C8.873,29.486 8.782,29.577 8.621,29.577 L7.101,29.577 C6.94,29.577 6.848,29.486 6.848,29.324 L6.848,29.049 C6.848,28.532 7.215,28.006 7.861,28.006 C8.506,28.006 8.873,28.532 8.873,29.049 L8.873,29.324 Z M18.474,31.703 C18.543,31.577 18.52,31.461 18.371,31.358 L18.106,31.175 C17.979,31.093 17.864,31.118 17.76,31.267 C17.635,31.437 17.415,31.908 16.77,31.908 C16.126,31.908 15.758,31.38 15.758,30.864 L15.758,29.049 C15.758,28.532 16.126,28.006 16.77,28.006 C17.415,28.006 17.657,28.51 17.76,28.671 C17.853,28.807 17.979,28.819 18.106,28.728 L18.382,28.532 C18.52,28.44 18.498,28.291 18.452,28.19 C18.36,27.982 17.911,27.189 16.77,27.189 C15.63,27.189 14.872,28.061 14.872,29.049 L14.872,30.864 C14.872,31.853 15.63,32.725 16.77,32.725 C17.911,32.725 18.348,31.957 18.474,31.703 Z M23.874,32.356 L23.874,29.049 C23.874,28.061 23.113,27.189 21.975,27.189 C21.465,27.189 21.042,27.316 20.673,27.521 C20.569,27.579 20.465,27.718 20.546,27.866 L20.696,28.13 C20.778,28.269 20.87,28.325 21.018,28.244 C21.25,28.119 21.571,28.006 21.975,28.006 C22.619,28.006 22.988,28.532 22.988,29.049 C22.988,29.164 22.918,29.233 22.827,29.187 C22.584,29.072 22.272,29.003 21.975,29.003 C20.834,29.003 20.075,29.876 20.075,30.864 C20.075,31.853 20.834,32.725 21.975,32.725 C22.434,32.725 22.768,32.587 22.975,32.461 C23.021,32.426 23.09,32.426 23.137,32.505 C23.17,32.564 23.229,32.61 23.321,32.61 L23.622,32.61 C23.782,32.61 23.874,32.52 23.874,32.356 Z M22.988,30.864 C22.988,31.38 22.619,31.908 21.975,31.908 C21.329,31.908 20.961,31.38 20.961,30.864 C20.961,30.346 21.329,29.819 21.975,29.819 C22.619,29.819 22.988,30.346 22.988,30.864 Z M29.295,32.093 C29.387,31.988 29.375,31.827 29.25,31.738 L29.019,31.577 C28.87,31.473 28.754,31.486 28.592,31.621 C28.432,31.76 28.237,31.908 27.891,31.908 C27.247,31.908 26.877,31.38 26.877,30.864 L26.877,28.312 C26.877,28.154 26.969,28.061 27.131,28.061 L28.397,28.061 C28.558,28.061 28.651,27.97 28.651,27.81 L28.651,27.556 C28.651,27.395 28.558,27.303 28.397,27.303 L27.131,27.303 C26.969,27.303 26.877,27.212 26.877,27.051 L26.877,26.04 C26.877,25.879 26.786,25.787 26.625,25.787 L26.246,25.787 C26.083,25.787 25.992,25.879 25.992,26.04 L25.992,27.051 C25.992,27.212 25.899,27.303 25.737,27.303 L25.485,27.303 C25.324,27.303 25.232,27.395 25.232,27.556 L25.232,27.81 C25.232,27.97 25.324,28.061 25.485,28.061 L25.737,28.061 C25.899,28.061 25.992,28.154 25.992,28.312 L25.992,30.864 C25.992,31.853 26.75,32.725 27.891,32.725 C28.536,32.725 29.007,32.437 29.295,32.093 Z M34.51,32.356 L34.51,29.049 C34.51,28.061 33.75,27.189 32.611,27.189 C32.104,27.189 31.678,27.316 31.311,27.521 C31.206,27.579 31.102,27.718 31.182,27.866 L31.333,28.13 C31.411,28.269 31.504,28.325 31.655,28.244 C31.885,28.119 32.208,28.006 32.611,28.006 C33.256,28.006 33.624,28.532 33.624,29.049 C33.624,29.164 33.554,29.233 33.461,29.187 C33.219,29.072 32.91,29.003 32.611,29.003 C31.471,29.003 30.709,29.876 30.709,30.864 C30.709,31.853 31.471,32.725 32.611,32.725 C33.071,32.725 33.405,32.587 33.612,32.461 C33.659,32.426 33.727,32.426 33.773,32.505 C33.807,32.564 33.866,32.61 33.958,32.61 L34.256,32.61 C34.417,32.61 34.51,32.52 34.51,32.356 Z M33.624,30.864 C33.624,31.38 33.256,31.908 32.611,31.908 C31.965,31.908 31.596,31.38 31.596,30.864 C31.596,30.346 31.965,29.819 32.611,29.819 C33.256,29.819 33.624,30.346 33.624,30.864 Z M39.839,32.093 C39.932,31.988 39.92,31.827 39.793,31.738 L39.563,31.577 C39.414,31.473 39.299,31.486 39.137,31.621 C38.977,31.76 38.782,31.908 38.436,31.908 C37.792,31.908 37.422,31.38 37.422,30.864 L37.422,25.28 C37.422,25.122 37.329,25.029 37.168,25.029 L36.79,25.029 C36.629,25.029 36.536,25.122 36.536,25.28 L36.536,30.864 C36.536,31.853 37.295,32.725 38.436,32.725 C39.081,32.725 39.552,32.437 39.839,32.093 Z M45.147,32.356 L45.147,27.556 C45.147,27.395 45.053,27.303 44.893,27.303 L44.513,27.303 C44.35,27.303 44.259,27.395 44.259,27.556 L44.259,30.864 C44.259,31.38 43.891,31.908 43.246,31.908 C42.602,31.908 42.234,31.38 42.234,30.864 L42.234,27.556 C42.234,27.395 42.142,27.303 41.979,27.303 L41.6,27.303 C41.44,27.303 41.348,27.395 41.348,27.556 L41.348,30.864 C41.348,31.853 42.108,32.725 43.246,32.725 C43.708,32.725 44.042,32.587 44.249,32.461 C44.295,32.426 44.364,32.426 44.409,32.505 C44.444,32.564 44.501,32.61 44.594,32.61 L44.893,32.61 C45.053,32.61 45.147,32.52 45.147,32.356 Z M50.465,32.356 L50.465,29.049 C50.465,28.061 49.704,27.189 48.565,27.189 C48.106,27.189 47.772,27.327 47.563,27.451 C47.518,27.486 47.448,27.486 47.403,27.405 C47.369,27.35 47.309,27.303 47.219,27.303 L46.918,27.303 C46.758,27.303 46.667,27.395 46.667,27.556 L46.667,32.356 C46.667,32.52 46.758,32.61 46.918,32.61 L47.298,32.61 C47.461,32.61 47.553,32.52 47.553,32.356 L47.553,29.049 C47.553,28.532 47.92,28.006 48.565,28.006 C49.209,28.006 49.579,28.532 49.579,29.049 L49.579,32.356 C49.579,32.52 49.67,32.61 49.833,32.61 L50.211,32.61 C50.374,32.61 50.465,32.52 50.465,32.356 Z M55.783,33.139 L55.783,27.556 C55.783,27.395 55.69,27.303 55.53,27.303 L55.15,27.303 C54.989,27.303 54.897,27.395 54.897,27.556 L54.897,30.864 C54.897,31.38 54.528,31.908 53.883,31.908 C53.239,31.908 52.871,31.38 52.871,30.864 L52.871,27.556 C52.871,27.395 52.778,27.303 52.618,27.303 L52.238,27.303 C52.076,27.303 51.985,27.395 51.985,27.556 L51.985,30.864 C51.985,31.853 52.744,32.725 53.883,32.725 C54.16,32.725 54.436,32.654 54.711,32.541 C54.816,32.495 54.897,32.553 54.897,32.645 L54.897,33.139 C54.897,33.656 54.528,34.185 53.883,34.185 C53.401,34.185 52.987,33.978 52.686,33.794 C52.572,33.724 52.41,33.747 52.329,33.886 L52.192,34.126 C52.11,34.265 52.157,34.401 52.272,34.482 C52.559,34.69 53.181,35 53.883,35 C55.024,35 55.783,34.126 55.783,33.139 Z M61.101,32.356 L61.101,29.049 C61.101,28.061 60.341,27.189 59.202,27.189 C58.696,27.189 58.27,27.316 57.901,27.521 C57.797,27.579 57.694,27.718 57.776,27.866 L57.924,28.13 C58.004,28.269 58.096,28.325 58.247,28.244 C58.476,28.119 58.799,28.006 59.202,28.006 C59.846,28.006 60.215,28.532 60.215,29.049 C60.215,29.164 60.146,29.233 60.053,29.187 C59.813,29.072 59.501,29.003 59.202,29.003 C58.062,29.003 57.303,29.876 57.303,30.864 C57.303,31.853 58.062,32.725 59.202,32.725 C59.663,32.725 59.997,32.587 60.202,32.461 C60.249,32.426 60.319,32.426 60.365,32.505 C60.399,32.564 60.457,32.61 60.547,32.61 L60.848,32.61 C61.01,32.61 61.101,32.52 61.101,32.356 Z M60.215,30.864 C60.215,31.38 59.846,31.908 59.202,31.908 C58.558,31.908 58.19,31.38 58.19,30.864 C58.19,30.346 58.558,29.819 59.202,29.819 C59.846,29.819 60.215,30.346 60.215,30.864 Z" id="Fill-15" fill="#000000" mask="url(#mask-4)"></path>
        </g>
    </g>
</svg>